select * from DrugMaster
WHERE henkoKubun = 3
and 20210331  < updateDate 
AND id in
(
'620676305',
'620006897',
'622062501',
'612130353',
'621486701',
'622154602',
'620059301',
'620481202',
'620491401',
'611170766',
'620645302',
'622448701',
'621707701',
'643310491',
'620004321',
'620164903',
'641170047',
'620008565',
'622174501',
'615101412',
'615101510',
'622546801',
'621985801',
'630010002',
'621993701',
'621228123',
'620005924',
'620005920',
'620006946',
'620359102',
'620255420',
'620856206',
'622217201',
'622334201',
'621371637',
'620124001',
'620007877',
'620007709',
'620004432',
'622381201',
'620008591',
'621941701',
'610443053',
'622080801',
'622581701',
'622259401',
'610463167',
'622143501',
'622244901',
'622057201',
'613220039',
'622255201',
'620339201',
'622620401',
'622792901',
'620256101',
'622412301',
'622110501',
'620009451',
'622576201',
'620007805',
'620006366',
'620009048',
'660406045',
'620100901',
'620009462',
'622375601',
'622093501',
'622079101',
'622340101',
'622070901',
'622401001',
'620006100',
'620007288',
'643920052',
'643990015',
'620507302',
'643130224',
'622442201',
'622411001',
'622837101',
'622014201',
'622374301',
'622412701',
'620006058',
'620007811',
'620006110',
'621245002',
'621470201',
'621486504',
'622361101',
'622182901',
'620004794',
'620001705',
'620009049',
'620231701',
'620007591',
'622420602',
'622012901',
'620053801',
'610454087',
'620005333',
'620006773',
'622144101',
'621751301',
'622088501',
'620007690',
'621903202',
'622000601',
'610462039',
'613130222',
'620421201',
'610407140',
'620389403',
'620421101',
'621487001',
'621951001',
'620000269',
'622200001',
'622560601',
'620480402',
'620004236',
'620000348',
'662640567',
'621414203',
'620397001',
'620383801',
'612370013',
'620007904',
'620139302',
'621999501',
'622144401',
'622602501',
'622528501',
'620853806',
'620001936',
'615101446',
'621637101',
'620098801',
'622250901',
'621315002',
'621475801',
'620491801',
'620007818',
'620002023',
'620160301',
'620007880',
'611170513',
'620721301',
'620006084',
'622521601',
'622415601',
'622403601',
'622040801',
'620005472',
'622145501',
'620625401',
'620007706',
'620002499',
'622798601',
'622784201',
'621566203',
'622233801',
'622577101',
'620004981',
'620007752',
'620008985',
'667120036',
'662640566',
'662640418',
'667120012',
'620008958',
'662640423',
'622641301',
'620604901',
'622441901',
'622047601',
'622306501',
'622653001',
'620005312',
'620005257',
'621200201',
'620203501',
'620005279',
'621395701',
'621985701',
'622795101',
'622533701',
'621720401',
'613130595',
'620003503',
'620006546',
'620005310',
'620006516',
'640454002',
'620410401',
'620004835',
'620008398',
'620004798',
'620008568',
'622150001',
'620004365',
'620004368',
'620002624',
'622038501',
'622061301',
'621990501',
'620007764',
'620003872',
'620004892',
'621985001',
'620004816',
'621229101',
'661310099',
'660432003',
'620004809',
'621375001',
'620266110',
'620000655',
'622346201',
'611170690',
'620490807',
'660453018',
'620005255',
'621706901',
'622588301',
'621146502',
'620004793',
'622195201',
'620604501',
'622251901',
'622188901',
'620007800',
'621704801',
'621704901',
'622365201',
'622189001',
'620009078',
'620007799',
'621556601',
'662650001',
'660463005',
'622215901',
'620007559',
'662640719',
'620009077',
'620615908',
'620002531',
'662640142',
'616130132',
'620007531',
'643180047',
'643310434',
'620004300',
'620004702',
'620007412',
'620007707',
'622112301',
'643310182',
'620004719',
'620007579',
'620008993',
'620600001',
'620004717',
'620007532',
'620003796',
'620003737',
'620008961',
'622699001',
'622466101',
'621229401',
'620004641',
'641210040',
'620006626',
'662610285',
'620002216',
'610463119',
'621989901',
'620003183',
'620002022',
'620005547',
'620002500',
'620006627',
'620007262',
'621189701',
'621825302',
'663320009',
'643180007',
'662640163',
'610421321',
'620009127',
'610443070',
'620452801',
'610443040',
'622090401',
'621687401',
'622514301',
'610463113',
'622142701',
'621692201',
'622556901',
'620005308',
'621950701',
'620848101',
'622579701',
'621946001',
'613330003',
'621986201',
'620003560',
'620340201',
'622057301',
'610422300',
'662640340',
'622682001',
'621683201',
'620008450',
'642220029',
'620621701',
'622337101',
'621944802',
'620675601',
'620005893',
'620009046',
'620005743',
'660462005',
'660443004',
'620008991',
'620005245',
'622193601',
'620813501',
'622861501',
'620005274',
'620005275',
'620005256',
'620004795',
'643250061',
'621231001',
'620005202',
'620006374',
'643310225',
'660406122',
'620604701',
'620000385',
'620007781',
'621395601',
'620204903',
'620003480',
'622028301',
'611240415',
'611170193',
'610409340',
'611170325',
'620004894',
'620004625',
'611120119',
'622365501',
'621521401',
'620477001',
'615101598',
'622576101',
'620007865',
'622336801',
'610433147',
'620004902',
'621522101',
'620009595',
'620002178',
'622625702',
'622071901',
'622598501',
'622414501',
'621919001',
'620000094',
'622374201',
'621371653',
'620007285',
'620006649',
'621944301',
'622239401',
'622795301',
'622630401',
'622784601',
'622636901',
'615101615',
'620647101',
'622573101',
'622171201',
'622057401',
'612120223',
'612130207',
'620515902',
'622284601',
'622357501',
'620002614',
'643310190',
'662450001',
'622534101',
'610454024',
'620708607',
'621467201',
'620004518',
'620202702',
'622450801',
'620212001',
'610462028',
'622104901',
'620222601',
'620005303',
'622653101',
'620006361',
'620038901',
'622604901',
'620003830',
'620004822',
'643310181',
'620006535',
'620009040',
'646120081',
'640421008',
'610411058',
'612220325',
'620389501',
'620000033',
'620509501',
'610443030',
'621829201',
'620002506',
'620007000',
'612470033',
'620537901',
'620204401',
'622046702',
'620003855',
'622640201',
'620006517',
'620205102',
'621996301',
'641210005',
'621705501',
'622869401',
'661310066',
'622375201',
'620003601',
'612320347',
'620002619',
'615101469',
'620009322',
'622025001',
'620352406',
'620490703',
'622066301',
'620007844',
'621534101',
'622424401',
'621472101',
'620007926',
'620003565',
'620007878',
'622302901',
'620053102',
'622156801',
'620307601',
'622424301',
'621930401',
'622469801',
'620034601',
'620004043',
'620476145',
'622515501',
'620935605',
'621639501',
'622156701',
'622375501',
'620266112',
'620856211',
'621374901',
'612120268',
'620242309',
'620307006',
'620564307',
'621508201',
'620420001',
'620037601',
'620193015',
'622356701',
'620007773',
'620004810',
'620009022',
'620006407',
'620005266',
'622113001',
'620459001',
'620007094',
'620008918',
'620003852',
'620003854',
'622199201',
'612170663',
'620065701',
'620481503',
'622148901',
'620008965',
'622187101',
'610463006',
'622808301',
'620007608',
'622572501',
'620007494',
'620007804',
'620007662',
'610443048',
'621396701',
'620006392',
'622471601',
'622250801',
'620005159',
'620525301',
'643310187',
'646120062',
'620100702',
'621418905',
'620708634',
'622366101',
'620501101',
'620518102',
'621171713',
'661210006',
'643130315',
'620525801',
'643310415',
'612450051',
'622036701',
'620005273',
'662640416',
'620001904',
'622441201',
'622042602',
'620003486',
'613120001',
'610406389',
'610412199',
'620002613',
'620895101',
'641210004',
'620007787',
'622531401',
'622484801',
'622586801',
'622521001',
'622029602',
'621780303',
'622591101',
'622421601',
'643310347',
'622626801',
'622296601',
'622627001',
'620856209',
'622857701',
'622098501',
'622263901',
'610443002',
'612370067',
'622219301',
'622185501',
'621415301',
'622357901',
'620007343',
'622136501',
'620233615',
'622556301',
'620933501',
'622627401',
'621414901',
'621979702',
'622687001',
'660433082',
'622446101',
'620004301',
'642450169',
'620525601',
'621171726',
'620007337',
'643230048',
'622805401',
'622538201',
'622788101',
'622811701',
'620007152',
'622227301',
'620897402',
'620571601',
'622252301',
'622668601',
'622265901',
'622649001',
'622261401',
'620100001',
'621937901',
'620858001',
'640441019',
'642450087',
'620007261',
'622635801',
'620007658',
'620708622',
'620007022',
'621702801',
'620009332',
'622803801',
'622081101',
'622516602',
'622261301',
'621968601',
'621481501',
'621620801',
'622070002',
'620721001',
'620701702',
'622523201',
'621501302',
'620005417',
'620642101',
'615101611',
'621711801',
'621487202',
'620191201',
'620509401',
'620007564',
'622799301',
'620004685',
'622509901',
'643230042',
'621971501',
'620000138',
'620004992',
'610421335',
'620005326',
'620007756',
'620006530',
'622282101',
'622119901',
'620002431',
'622374601',
'620204101',
'620220201',
'622072901',
'620004806',
'620007344',
'616130532',
'622400601',
'620007802',
'620009028',
'620008709',
'622835201',
'611160089',
'612390023',
'610443014',
'611120055',
'622535601',
'610463198',
'613130504',
'620005208',
'622382401',
'620000423',
'620004857',
'611240248',
'622571301',
'612170710',
'621974701',
'622182601',
'620002477',
'622704001',
'622225001',
'620002526',
'620425104',
'620256201',
'643230089',
'620006625',
'622489801',
'660453014',
'640454035',
'620007600',
'662640446',
'622682201',
'620847201',
'620004703',
'620006466',
'660453012',
'661310031',
'620000379',
'622685301',
'622666901',
'620007455',
'620007407',
'621702901',
'620271902',
'621891901',
'621987401',
'620007245',
'620008858',
'620007932',
'621931401',
'622040901',
'621665502',
'622264101',
'620038401',
'629906401',
'620000402',
'620007354',
'620008359',
'643310183',
'620005210',
'640462008',
'620007237',
'620007263',
'622608801',
'622184501',
'620005368',
'610431117',
'621478701',
'620002548',
'620857601',
'620002509',
'620008547',
'610443047',
'620007812',
'621983701',
'610432016',
'613130469',
'610444041',
'620006623',
'622335701',
'622632301',
'622250202',
'620004915',
'610432035',
'620000167',
'622694301',
'622404401',
'622069101',
'622345201',
'620006641',
'621772101',
'610444134',
'612340143',
'620003539',
'620004961',
'641410014',
'621070301',
'620009064',
'621736701',
'620006971',
'610453119',
'622365901',
'610443067',
'621764604',
'620525201',
'620517902',
'620231501',
'620006526',
'620000187',
'620008964',
'620508601',
'620005201',
'620152501',
'620124807',
'620119923',
'620138001',
'610453100',
'620338317',
'620696601',
'620945006',
'620488803',
'610409229',
'611120063',
'620037802',
'622525701',
'662640720',
'620665302',
'621371306',
'621525202',
'621534501',
'620352301',
'620117112',
'621218501',
'611170713',
'621365822',
'646320003',
'610444103',
'617210058',
'620481301',
'620006958',
'620233305',
'620006836',
'610454071',
'622842601',
'668110001',
'621980701',
'622575201',
'620007860',
'622260301',
'622503801',
'610463174',
'611170050',
'610463161',
'611120159',
'620005604',
'620049101',
'615101409',
'622680801',
'620066201',
'620005827',
'612370037',
'620005628',
'621687301',
'620007133',
'620039601',
'620008325',
'621499102',
'620004801',
'620000435',
'612120016',
'620117103',
'622148801',
'622567801',
'620006170',
'611170326',
'620049401',
'622200801',
'620003156',
'610453103',
'620491503',
'620099201',
'662640417',
'620008041',
'620008571',
'610432012',
'621313601',
'611170824',
'622688001',
'621917201',
'622394501',
'620845301',
'622030201',
'620004836',
'622071401',
'622448101',
'620047403',
'611170036',
'620721101',
'622141601',
'621978201',
'622198801',
'620469401',
'620147303',
'622687801',
'611170820',
'620340603',
'610444126',
'622452901',
'620160501',
'615101502',
'611170689',
'611170825',
'622069502',
'622538301',
'622452801',
'615101507',
'620007854',
'622200501',
'610454063',
'620476101',
'620007694',
'620720002',
'620003064',
'620675801',
'620066101',
'620006169',
'610462014',
'620007289',
'620007437',
'620005022',
'620007035',
'622200701',
'610432030',
'617900003',
'622703201',
'621395202',
'620003689',
'621972501',
'622513201',
'643230032',
'620003006',
'620007779',
'620007495',
'643180037',
'643310004',
'622470701',
'667120033',
'622795801',
'622488701',
'622484401',
'622209701',
'620007630',
'622350401',
'621169645',
'621521801',
'641210099',
'620003829',
'610463120',
'622556801',
'622256901',
'622002801',
'622245701',
'621982701',
'622434601',
'610443043',
'622271602',
'621500202',
'621938601',
'622007301',
'620378201',
'615101492',
'620005754',
'622144201',
'622100701',
'662350104',
'661140181',
'622621401',
'620272102',
'620008530',
'620766727',
'620007513',
'620766032',
'621069601',
'622168001',
'621932001',
'621977401',
'620005550',
'621931901',
'620004078',
'620480601',
'662350010',
'620004775',
'620002215',
'620004211',
'620608901',
'620731101',
'620008909',
'622446201',
'622051701',
'620007581',
'610462042',
'620007518',
'640451010',
'621487501',
'640407077',
'640462033',
'620003636',
'620468701',
'621371633',
'620507802',
'622134101',
'622571801',
'622657101',
'620005602',
'662640043',
'620004035',
'622430701',
'622142402',
'620006033',
'622093301',
'622350202',
'622170601',
'622261501',
'620149106',
'612320201',
'621985501',
'622170201',
'660443015',
'615101447',
'620005566',
'620004036',
'622203601',
'622011401',
'640451002',
'621920901',
'620171111',
'622823501',
'622096801',
'622811301',
'620009600',
'622280601',
'615101501',
'620389417',
'620698003',
'620004540',
'620814511',
'622543001',
'611120081',
'622073101',
'620007313',
'620525001',
'620004776',
'620895702',
'641210022',
'622229701',
'620001935',
'643230298',
'622864801',
'620644901',
'620797401',
'620005805',
'620009045',
'620009062',
'620007167',
'643310497',
'621472002',
'611170514',
'611170827',
'622237601',
'611170028',
'611170435',
'622276601',
'621975402',
'611170374',
'641170026',
'621959001',
'621926501',
'621978301',
'621926401',
'611170508',
'620557001',
'620008165',
'620099301',
'622526501',
'620047103',
'620708613',
'611170430',
'640443023',
'622837401',
'622138101',
'640443024',
'622133301',
'620009149',
'620754201',
'621891801',
'622837301',
'640451015',
'622370901',
'643310286',
'620006203',
'640412109',
'643310476',
'640462006',
'613130585',
'620007095',
'620003887',
'610444042',
'614490030',
'620004651',
'621149001',
'640421009',
'622622101',
'620099602',
'621640501',
'620005744',
'643130188',
'620003787',
'620895201',
'621910102',
'621441901',
'620646202',
'622370801',
'620009047',
'621763801',
'643180053',
'621896902',
'622795401',
'620004661',
'620007060',
'621685701',
'622650101',
'620675701',
'621694102',
'621622001',
'661140080',
'620193010',
'622669701',
'621705002',
'620856213',
'622837001',
'620148601',
'620161401',
'620544901',
'620353601',
'622114201',
'620004083',
'620414701',
'620676845',
'622082401',
'621726702',
'620003998',
'620004578',
'620007960',
'621372901',
'620007691',
'621373001',
'620007689',
'620720901',
'622277102',
'621944702',
'620642601',
'660432014',
'620004299',
'620004298',
'640412105',
'620002557',
'622345101',
'643120014',
'610463114',
'622491101',
'620065901',
'620007834',
'610451003',
'611120087',
'611170743',
'611130100',
'620729101',
'611120088',
'620492501',
'620118102',
'611170470',
'611170192',
'611410121',
'621980601',
'622028201',
'615101246',
'615101417',
'620488501',
'620038802',
'610454091',
'611120076',
'622496901',
'620005925',
'622585301',
'610451002',
'620870501',
'620007454',
'620009136',
'620797501',
'620000339',
'622419601',
'620004042',
'611190027',
'620008564',
'622585401',
'622455001',
'622138201',
'620009125',
'621997401',
'620123601',
'622046201',
'610463077',
'622699401',
'613120002',
'610409341',
'611170694',
'611170221',
'611170790',
'611170160',
'611170499',
'620005888',
'620004945',
'620006559',
'611120155',
'622266301',
'615101199',
'620002536',
'620005909',
'622047301',
'620002519',
'611120114',
'620003954',
'643180017',
'621217201',
'620007269',
'620007168',
'620004194',
'620572501',
'620003532',
'643180005',
'622060402',
'620123801',
'613210001',
'620007813',
'622348201',
'620007872',
'620676348',
'620003469',
'621520803',
'620491206',
'620006301',
'620006303',
'610463219',
'641170001',
'621185901',
'622404501',
'620480205',
'620007150',
'620009461',
'622463301',
'620006893',
'610463045',
'611120118',
'622244501',
'620004137',
'643310356',
'620005654',
'620525401',
'643230274',
'622385701',
'622385801',
'622525501',
'622259501',
'643230212',
'620008704',
'620005642',
'622298401',
'620383101',
'615101406',
'620004200',
'620006228',
'622224401',
'612340028',
'620423702',
'622068901',
'622208301',
'620006259',
'620008920',
'617210061',
'620480504',
'660463006',
'621983801',
'662350009',
'621971001',
'621932301',
'640412111',
'620525101',
'620002573',
'621311101',
'620007342',
'622411101',
'620009145',
'640463039',
'643310226',
'620008230',
'620006672',
'622213001',
'621634101',
'622572101',
'621994601',
'622670201',
'622025101',
'622570401',
'612170456',
'610454065',
'622223501',
'620005406',
'620005260',
'622090901',
'622834901',
'621956501',
'622159601',
'622835001',
'620730201',
'621700302',
'643310348',
'620801302',
'620809902',
'620008917',
'622378301',
'620004179',
'621188701',
'621939701',
'662660057',
'612450118',
'622023101',
'622854401',
'622167901',
'620480707',
'622239101',
'660463035',
'620003776',
'622532801',
'622532701',
'662560019',
'620695916',
'615101480',
'662550038',
'621985401',
'620007260',
'620005346',
'622134801',
'620555201',
'622004201',
'612140702',
'620269703',
'620003065',
'620856215',
'622043301',
'620003948',
'622156201',
'620004832',
'622572001',
'643120103',
'620008827',
'620001970',
'621229903',
'622361201',
'616150063',
'621148901',
'622251001',
'622257001',
'622003201',
'622799701',
'621793003',
'620007870',
'621499202',
'620626501',
'643130061',
'622666801',
'615101607',
'620646901',
'620006538',
'621228117',
'621466202',
'621212601',
'620004640',
'622186701',
'620049801',
'610453023',
'622395101',
'620415701',
'622007102',
'615101621',
'622242901',
'620005153',
'622391401',
'620644603',
'622002901',
'621575901',
'622669801',
'621640301',
'661140081',
'622797301',
'620006442',
'621937001',
'622669901',
'622024701',
'612330192',
'621952001',
'621499402',
'621395503',
'621559301',
'610443080',
'620004660',
'620001849',
'620003816',
'622380601',
'620318801',
'621401303',
'620500202',
'620006800',
'620008653',
'620098902',
'622452202',
'642470048',
'622269901',
'620007033',
'620000660',
'620007817',
'622249101',
'621124801',
'622575601',
'620004015',
'620006013',
'622379501',
'643310209',
'620525701',
'621651001',
'622364601',
'622293101',
'641210100',
'610407025',
'620003930',
'621314901',
'620143602',
'620039501',
'622224901',
'620005090',
'622564801',
'610422253',
'620675401',
'620005630',
'620493611',
'622060902',
'621791602',
'662630027',
'620008163',
'643130107',
'640461008',
'621365314',
'620002498',
'640444050',
'620768401',
'620005243',
'622447301',
'620008447',
'622306701',
'620162018',
'610444095',
'620001861',
'622237503',
'622645201',
'620422003',
'620003615',
'620845201',
'621390701',
'615101416',
'621632804',
'621400901',
'610454048',
'620857310',
'620946906',
'620004350',
'620003654',
'610421004',
'620004557',
'621791702',
'620666705',
'662640421',
'622296101',
'620608511',
'662640093',
'622230401',
'620005277',
'620007396',
'621969101',
'622471301',
'612340099',
'620002093',
'622499501',
'620005616',
'620494501',
'622200601',
'620004028',
'622089501',
'620856241',
'615101493',
'612220036',
'620767310',
'622570601',
'621838203',
'622139001',
'622138901',
'622406201',
'622573601',
'620423601',
'622543501',
'620307702',
'622096401',
'622263801',
'621643001',
'620309102',
'620236101',
'622270101',
'622341701',
'622264801',
'612140164',
'622531601',
'620005567',
'622288601',
'620005166',
'622374401',
'620766034',
'621943401',
'621999701',
'620002636',
'622653501',
'622438401',
'622450301',
'622464601',
'615101428',
'621528702',
'615101620',
'621244602',
'620007646',
'620006382',
'620039402',
'622259301',
'622440701',
'629906901',
'622178402',
'621984201',
'621254601',
'613390006',
'622360601',
'620156901',
'620007460',
'622339101',
'622632101',
'620008385',
'611120080',
'622258401',
'620193017',
'620003933',
'620006046',
'612370066',
'622705301',
'620006139',
'610454055',
'620002047',
'620005823',
'660421116',
'620620901',
'616150088',
'622786401',
'622042801',
'622495701',
'611130101',
'622184001',
'621752101',
'622339001',
'620005306',
'620486402',
'620004387',
'622807801',
'622373001',
'610462047',
'621940601',
'622138801',
'620009318',
'620422501',
'621949301',
'622005901',
'622822801',
'622822601',
'620004044',
'621945902',
'620473401',
'620009342',
'621116301',
'620004391',
'622372601',
'622498501',
'622624501',
'620006548',
'622163801',
'621373401',
'621911701',
'611170639',
'622084601',
'620599402',
'620476801',
'621265001',
'640451016',
'622601901',
'622552001',
'640450010',
'620004080',
'622189502',
'622533301',
'622235901',
'622678401',
'622796601',
'622306901',
'620486001',
'612160027',
'620531101',
'615101230',
'621431201',
'622054701',
'622518102',
'620002668',
'622252701',
'620008952',
'628710002',
'620003850',
'620565302',
'620194001',
'610453151',
'620145314',
'610453022',
'620119927',
'621748202',
'620005311',
'622069201',
'620004995',
'640412175',
'640408165',
'622364701',
'621362236',
'622791701',
'622543301',
'620003619',
'622668201',
'620004401',
'620009400',
'611240049',
'622259601',
'622554801',
'620467301',
'629902701',
'622336401',
'620004195',
'620845401',
'622186901',
'620676313',
'621974601',
'622358001',
'622861201',
'620119906',
'622378201',
'620000242',
'622278701',
'620682801',
'610463156',
'613180067',
'620494402',
'622562401',
'622562301',
'620491703',
'643120012',
'643130328',
'620006489',
'622553801',
'620002936',
'660407146',
'621495301',
'640454022',
'620118402',
'615101466',
'620006539',
'620005244',
'622090801',
'620004897',
'620193003',
'620429707',
'620719401',
'621939101',
'662610321',
'640412023',
'620006956',
'622156101',
'622811601',
'621528901',
'611140431',
'612220504',
'622356201',
'622467401',
'613250027',
'622278201',
'620008502',
'620270703',
'621573402',
'622609402',
'620222501',
'621720501',
'622068002',
'620149601',
'622175001',
'621414403',
'622171001',
'622514901',
'622460101',
'620005434',
'622662801',
'622017301',
'622201701',
'622435601',
'610421322',
'622146501',
'620008054',
'622441101',
'611120111',
'622199301',
'621400502',
'610409005',
'620006797',
'622421101',
'622392701',
'622662601',
'622041001',
'622584101',
'643230090',
'644300015',
'622195401',
'643140045',
'621669801',
'620006199',
'620002923',
'643310335',
'620006638',
'620004170',
'622130701',
'620003695',
'621630201',
'620009466',
'622460301',
'622071701',
'621853203',
'622380701',
'622609502',
'621399602',
'621981601',
'622837701',
'621970701',
'622438301',
'620326001',
'620488701',
'622799601',
'622165701',
'622537301',
'622797801',
'622206601',
'620001908',
'622236401',
'620494902',
'620148701',
'622341601',
'622510801',
'620008969',
'620006480',
'622280801',
'622806201',
'620007736',
'621521901',
'620007739',
'620007264',
'661310098',
'620008268',
'615101414',
'622835101',
'620079305',
'622574501',
'615101430',
'621893501',
'621950801',
'621992102',
'622680601',
'620009319',
'622457701',
'622035401',
'622586701',
'621769402',
'622404601',
'612320183',
'621677901',
'620004821',
'622698301',
'621970101',
'622594601',
'640408131',
'620007256',
'620005892',
'620008772',
'620814003',
'620005261',
'622417901',
'620007784',
'622418001',
'621867201',
'620006560',
'622378801',
'620423501',
'620008371',
'617210100',
'622041801',
'628512804',
'622488901',
'622579101',
'644310125',
'622703501',
'622101401',
'667130005',
'621451401',
'621454102',
'622695801',
'620004873',
'622255101',
'622630701',
'622630801',
'647130008',
'620004082',
'622573801',
'622491601',
'620009427',
'612220505',
'620007885',
'660421117',
'622242301',
'620008384',
'643230317',
'620008270',
'622009901',
'620005564',
'640463047',
'660407078',
'620007553',
'660451001',
'620006629',
'622338401',
'612340117',
'617140021',
'616130110',
'611170801',
'621470101',
'622336601',
'621401701',
'622428901',
'622363801',
'620555101',
'622517201',
'620805001',
'622662201',
'620500702',
'640463002',
'621726301',
'620009277',
'620303501',
'622208701',
'622639101',
'622225801',
'620665402',
'622703401',
'620003256',
'622678201',
'620485302',
'620352402',
'621399401',
'622161502',
'621473802',
'622254801',
'620008176',
'646130075',
'622345601',
'621708501',
'620008529',
'615101052',
'620116802',
'620007121',
'622306201',
'621278401',
'621261102',
'621373403',
'621287601',
'622367901',
'615101752',
'622124401',
'620557101',
'615101484',
'615101422',
'615101488',
'615101441',
'622392801',
'610407148',
'622140001',
'620003659',
'620005899',
'620009147',
'620005568',
'620009401',
'620002429',
'620005825',
'620008744',
'620007593',
'620004833',
'621507901',
'620000420',
'621933201',
'621999201',
'622376301',
'622572401',
'621095002',
'640443005',
'620006237',
'622266601',
'622623101',
'620675904',
'640462004',
'620007923',
'621951301',
'622813501',
'622654601',
'620007571',
'621393301',
'620007036',
'622022401',
'621201302',
'621190101',
'622609201',
'621191701',
'643310429',
'621841401',
'621973501',
'621973401',
'620003853',
'622784801',
'622220701',
'620290106',
'622090701',
'622704101',
'620315201',
'622068701',
'622175401',
'621531001',
'620003128',
'622110601',
'622341901',
'622582001',
'620007082',
'662560007',
'620003871',
'620220501',
'622342901',
'620204201',
'620007769',
'620004716',
'620009052',
'647130005',
'622511901',
'620007102',
'622110701',
'621721201',
'621997501',
'620005527',
'622160801',
'610463166',
'620001120',
'620007836',
'620157201',
'620049901',
'622554501',
'622554301',
'622680901',
'620476901',
'622092501',
'620484801',
'620119903',
'622794801',
'620697701',
'622210701',
'640431017',
'622160901',
'622092401',
'610453041',
'622554401',
'612340024',
'622629501',
'620144802',
'620001974',
'621367408',
'613230001',
'620008162',
'610453150',
'622499401',
'610453117',
'620005147',
'622507901',
'621520901',
'622135401',
'622305901',
'620881504',
'620856601',
'622585201',
'621297901',
'610444094',
'620004609',
'610463165',
'622484601',
'622676401',
'610470002',
'620543301',
'622825401',
'622069301',
'621188001',
'621537202',
'620229309',
'620007710',
'620111101',
'620530701',
'620447601',
'613130553',
'610443032',
'620320201',
'621528801',
'629903201',
'622395601',
'620005561',
'622033101',
'621567604',
'620008695',
'622259801',
'620942001',
'622260201',
'622675801',
'622808901',
'620008501',
'621687202',
'620382702',
'620002195',
'620173601',
'622210502',
'620007404',
'620006262',
'620002478',
'613390027',
'622170301',
'622447001',
'611190026',
'622251701',
'620007014',
'620813503',
'620078541',
'643180004',
'620004135',
'642140022',
'621780403',
'621174922',
'620008897',
'620000188',
'610463197',
'621951201',
'621468802',
'621682603',
'622795901',
'620009430',
'622833901',
'622571201',
'622606701',
'612140328',
'620003080',
'620007284',
'611170005',
'622266201',
'622032501',
'620495102',
'620005958',
'620007058',
'620008994',
'620625902',
'641210105',
'620004829',
'612140128',
'620004629',
'662630023',
'640451044',
'621922401',
'620004358',
'621892301',
'621837101',
'622019301',
'617140012',
'620008998',
'621278001',
'622122801',
'622186301',
'640454012',
'640454013',
'620008403',
'620923602',
'622252901',
'620003846',
'620005505',
'621096601',
'622177401',
'620007338',
'662550036',
'662610284',
'620006624',
'620822301',
'622083901',
'621311001',
'622143701',
'622594201',
'622252601',
'610462010',
'622845001',
'610432034',
'620516002',
'620719601',
'620009465',
'643250072',
'621538303',
'620007385',
'622125101',
'621933001',
'620003151',
'622796001',
'622496701',
'610432006',
'622699301',
'622239301',
'622225101',
'622402601',
'622680501',
'621467301',
'621397602',
'622869501',
'620005833',
'621933101',
'621467101',
'621457801',
'620219501',
'620003210',
'621467603',
'620203301',
'611120117',
'661310209',
'621877801',
'622365601',
'622355101',
'622215201',
'620005488',
'620005047',
'662640627',
'620691102',
'662640899',
'662640415',
'622188101',
'640421007',
'643990143',
'620876301',
'621469501',
'622637601',
'621959701',
'622625201',
'622324300',
'621399302',
'622560401',
'622127401',
'621277801',
'620005935',
'622156601',
'621636601',
'620009150',
'642450005',
'620007772',
'661310157',
'641210102',
'620007797',
'622590601',
'622210401',
'620000363',
'643120101',
'643120013',
'621968802',
'620003677',
'620003831',
'620008811',
'642110008',
'621555202',
'620007730',
'620007341',
'620003198',
'646130269',
'620003202',
'620007335',
'643140021',
'646130124',
'622016601',
'620001164',
'643140039',
'620193013',
'620379501',
'621527801',
'620647301',
'621371901',
'622682401',
'640453023',
'622427201',
'612140651',
'621148801',
'620812504',
'620007349',
'622308401',
'642450170',
'620004850',
'620005665',
'622410801',
'622073301',
'630010005',
'621929103',
'621560201',
'621929003',
'620476415',
'620003228',
'660470006',
'621928403',
'620006293',
'620007851',
'622011201',
'620266132',
'622339301',
'622068301',
'622271001',
'622829001',
'622094701',
'621973701',
'620008745',
'620002621',
'620003665',
'622447101',
'620002570',
'620006243',
'620004304',
'622679001',
'643230411',
'620008443',
'620005880',
'622412501',
'622412601',
'621970401',
'622359901',
'620006986',
'622576601',
'622546601',
'620006791',
'622852701',
'622017101',
'621988902',
'621988602',
'621899403',
'621899203',
'640407081',
'621096802',
'620007444',
'620006919',
'622093201',
'621558101',
'622795601',
'621979002',
'622067803',
'620571904',
'620006034',
'622576301',
'622016901',
'620004805',
'620004872',
'620009515',
'622688801',
'620218401',
'621512503',
'646130302',
'620416630',
'622829101',
'620006396',
'622478201',
'641230015',
'622019902',
'620007265',
'640451003',
'610454083',
'620007820',
'622167701',
'621228112',
'622404701',
'622426401',
'622605101',
'621990701',
'622821001',
'620004607',
'622093001',
'620003740',
'620003588',
'620005606',
'620262802',
'622401201',
'622198901',
'622130301',
'620008076',
'622462501',
'641140051',
'621986101',
'620038001',
'621979102',
'620006397',
'620007318',
'622016001',
'621981901',
'622086501',
'620004422',
'620005830',
'621535701',
'641210003',
'613990096',
'622526901',
'620003140',
'621709001',
'620002593',
'640451001',
'621064501',
'620003772',
'610422205',
'620754701',
'622301801',
'620264101',
'622258001',
'620005611',
'622511101',
'622065101',
'612140518',
'612110154',
'620811002',
'621184501',
'622667301',
'620008584',
'622250401',
'643310508',
'622557201',
'621899303',
'622486801',
'620006630',
'642210014',
'620006355',
'620006715',
'622705601',
'640421011',
'621984701',
'640451018',
'620005577',
'621602501',
'621602401',
'621889901',
'622479301',
'622088001',
'621371629',
'622147201',
'622667801',
'620009352',
'612120233',
'622080701',
'622671001',
'620004062',
'621835501',
'620233611',
'622366201',
'660463002',
'620234804',
'612140712',
'620004541',
'621189001',
'620005195',
'621825502',
'620008537',
'620303701',
'641210019',
'620006631',
'640443006',
'621520001',
'620006785',
'660433021',
'663320010',
'663320013',
'620032201',
'620003685',
'620006725',
'620005855',
'640421023',
'621208101',
'622088201',
'620006783',
'611170727',
'621932101',
'620009082',
'620006368',
'620006554',
'616130408',
'630010070',
'628302301',
'689530014',
'628302401',
'610443026',
'682710001',
'689120019',
'620008235',
'620003645',
'620415501',
'628304801',
'620002329',
'620079338',
'616140105',
'621215301',
'620416001',
'616130003',
'621947601',
'680462001',
'621962701',
'620079311',
'621940401',
'622400701',
'610406170',
'621215401',
'612370052',
'620003172',
'620009117',
'620079325',
'620008490',
'621677503',
'620007673',
'620007096',
'620005508',
'628311101',
'616140102',
'620007100',
'621076401',
'620003012',
'611140236',
'621088705',
'622281601',
'621073704',
'620004278',
'628302901',
'621925701',
'610454047',
'610443079'
)
