4012611     26958956
40426110410000595346

40 4 26110 410 000595346

都道府県コード＋点数表コード＋処理年月＋レセプト管理番号

都道府県コード（２桁）＋点数表コード（１桁）＋処理年月（５桁）＋レセプト管理番号（９桁）

レセプト管理番号（９桁）＝「機器番号（２桁）」＋「シーケンス番号（７桁）」※機器番号⇒０１～１０番台） 


