オンライン又は光ディスク等による請求に係る記録条件仕様歯科.pdf
別表１５より

例：101600

桁1:1固定
桁2:0固定
桁3:
	１：右上
	２：左上
	３：左下
	４：右下
	５：右上乳歯
	６：左上乳歯
	７：左下乳歯
	８：右下乳歯
	
桁4:
	１  中切歯
	２  側切歯
	３  犬歯
	４  第１小臼歯
	５  第２小臼歯
	６  第１大臼歯
	７  第２大臼歯
	８  第３大臼歯
	Ａ  中切歯近傍過剰歯
	Ｂ  側切歯近傍過剰歯
	Ｃ  犬歯近傍過剰歯
	Ｄ  第１小臼歯近傍過剰歯
	Ｅ  第２小臼歯近傍過剰歯
	Ｆ  第１大臼歯近傍過剰歯
	Ｇ  第２大臼歯近傍過剰歯
	Ｈ  第３大臼歯近傍過剰歯




１０００  口腔全体
１００１  上顎歯列
１００２  下顎歯列
１００３  右側上顎臼歯
１００４  上顎前歯
１００５  左側上顎臼歯
１００６  左側下顎臼歯
１００７  下顎前歯
１００８  右側下顎臼歯
１０１０  右上顎歯列
１０２０  左上顎歯列
１０３０  左下顎歯列
１０４０  右下顎歯列

１０１１  右側上顎中切歯
１０１２  右側上顎側切歯
１０１３  右側上顎犬歯
１０１４  右側上顎第１小臼歯
１０１５  右側上顎第２小臼歯
１０１６  右側上顎第１大臼歯
１０１７  右側上顎第２大臼歯
１０１８  右側上顎第３大臼歯

１０２１  左側上顎中切歯
１０２２  左側上顎側切歯
１０２３  左側上顎犬歯
１０２４  左側上顎第１小臼歯
１０２５  左側上顎第２小臼歯
１０２６  左側上顎第１大臼歯
１０２７  左側上顎第２大臼歯
１０２８  左側上顎第３大臼歯

１０３１  左側下顎中切歯
１０３２  左側下顎側切歯
１０３３  左側下顎犬歯
１０３４  左側下顎第１小臼歯
１０３５  左側下顎第２小臼歯
１０３６  左側下顎第１大臼歯
１０３７  左側下顎第２大臼歯
１０３８  左側下顎第３大臼歯

１０４１  右側下顎中切歯
１０４２  右側下顎側切歯
１０４３  右側下顎犬歯
１０４４  右側下顎第１小臼歯
１０４５  右側下顎第２小臼歯
１０４６  右側下顎第１大臼歯
１０４７  右側下顎第２大臼歯
１０４８  右側下顎第３大臼歯

１０１Ａ  右側上顎中切歯近傍過剰歯
１０１Ｂ  右側上顎側切歯近傍過剰歯
１０１Ｃ  右側上顎犬歯近傍過剰歯
１０１Ｄ  右側上顎第１小臼歯近傍過剰歯
１０１Ｅ  右側上顎第２小臼歯近傍過剰歯
１０１Ｆ  右側上顎第１大臼歯近傍過剰歯
１０１Ｇ  右側上顎第２大臼歯近傍過剰歯
１０１Ｈ  右側上顎第３大臼歯近傍過剰歯
１０２Ａ  左側上顎中切歯近傍過剰歯
１０２Ｂ  左側上顎側切歯近傍過剰歯
１０２Ｃ  左側上顎犬歯近傍過剰歯
１０２Ｄ  左側上顎第１小臼歯近傍過剰歯
１０２Ｅ  左側上顎第２小臼歯近傍過剰歯
１０２Ｆ  左側上顎第１大臼歯近傍過剰歯
１０２Ｇ  左側上顎第２大臼歯近傍過剰歯
１０２Ｈ  左側上顎第３大臼歯近傍過剰歯
１０３Ａ  左側下顎中切歯近傍過剰歯
１０３Ｂ  左側下顎側切歯近傍過剰歯
１０３Ｃ  左側下顎犬歯近傍過剰歯
１０３Ｄ  左側下顎第１小臼歯近傍過剰歯
１０３Ｅ  左側下顎第２小臼歯近傍過剰歯
１０３Ｆ  左側下顎第１大臼歯近傍過剰歯
１０３Ｇ  左側下顎第２大臼歯近傍過剰歯
１０３Ｈ  左側下顎第３大臼歯近傍過剰歯
１０４Ａ  右側下顎中切歯近傍過剰歯
１０４Ｂ  右側下顎側切歯近傍過剰歯
１０４Ｃ  右側下顎犬歯近傍過剰歯
１０４Ｄ  右側下顎第１小臼歯近傍過剰歯
１０４Ｅ  右側下顎第２小臼歯近傍過剰歯
１０４Ｆ  右側下顎第１大臼歯近傍過剰歯
１０４Ｇ  右側下顎第２大臼歯近傍過剰歯
１０４Ｈ  右側下顎第３大臼歯近傍過剰歯


１０５１  右側上顎乳中切歯
１０５２  右側上顎乳側切歯
１０５３  右側上顎乳犬歯
１０５４  右側上顎第１乳臼歯
１０５５  右側上顎第２乳臼歯
１０６１  左側上顎乳中切歯
１０６２  左側上顎乳側切歯
１０６３  左側上顎乳犬歯
１０６４  左側上顎第１乳臼歯
１０６５  左側上顎第２乳臼歯
１０７１  左側下顎乳中切歯
１０７２  左側下顎乳側切歯
１０７３  左側下顎乳犬歯
１０７４  左側下顎第１乳臼歯
１０７５  左側下顎第２乳臼歯
１０８１  右側下顎乳中切歯
１０８２  右側下顎乳側切歯
１０８３  右側下顎乳犬歯
１０８４  右側下顎第１乳臼歯
１０８５  右側下顎第２乳臼歯
１０５Ａ  右側上顎乳中切歯近傍過剰歯
１０５Ｂ  右側上顎乳側切歯近傍過剰歯
１０５Ｃ  右側上顎乳犬歯近傍過剰歯
１０５Ｄ  右側上顎第１乳臼歯近傍過剰歯
１０５Ｅ  右側上顎第２乳臼歯近傍過剰歯
１０６Ａ  左側上顎乳中切歯近傍過剰歯
１０６Ｂ  左側上顎乳側切歯近傍過剰歯
１０６Ｃ  左側上顎乳犬歯近傍過剰歯
１０６Ｄ  左側上顎第１乳臼歯近傍過剰歯
１０６Ｅ  左側上顎第２乳臼歯近傍過剰歯
１０７Ａ  左側下顎乳中切歯近傍過剰歯
１０７Ｂ  左側下顎乳側切歯近傍過剰歯
１０７Ｃ  左側下顎乳犬歯近傍過剰歯
１０７Ｄ  左側下顎第１乳臼歯近傍過剰歯
１０７Ｅ  左側下顎第２乳臼歯近傍過剰歯
１０８Ａ  右側下顎乳中切歯近傍過剰歯
１０８Ｂ  右側下顎乳側切歯近傍過剰歯
１０８Ｃ  右側下顎乳犬歯近傍過剰歯
１０８Ｄ  右側下顎第１乳臼歯近傍過剰歯
１０８Ｅ  右側下顎第２乳臼歯近傍過剰歯


オンライン又は光ディスク等による請求に係る記録条件仕様歯科.pdf
別表１６より

桁5：状態コード
	０  現存歯
	１  部（部を示す場合に使用）
	２  欠損歯
	３  支台歯
	４  分割抜歯支台（根）
	５  便宜抜髄支台歯
	６  残根
	７  部インプラント
	８  部近心隙
	９  近心位に存在

オンライン又は光ディスク等による請求に係る記録条件仕様歯科.pdf
別表１７より

桁6：部分コード
	０  部分指定なし
	１  遠心頬側根
	２  近心頬側根
	３  近心頬側根及び遠心頬側根
	４  舌側（口蓋）根
	５  舌側（口蓋）根及び遠心頬側根
	６  舌側（口蓋）根及び近心頬側根
	７  遠心根
	８  近心根