基本的に医科レセと同じ

HSレコード

４列目　歯式（傷病名）　６桁ずつ、歯の並びと状態が記されている

１ 歯種コード４桁（別表１５）
	＋状態コード１桁（別表１６）
	＋部分コード１桁（別表１７）の計６桁を１単位として記録する。ただし、最大６４単位までの記録とする。
２ 記録するバイト数は、６の倍数となる。
３ 歯式の記録が必要のない場合は、記録を省略する。

５列目　傷病名コード
傷病名マスタの３９列目（歯科傷病名省略名称）から傷病名を取得

例
101600101500101400101300101200101100102100102200102300102400102600102700104600104500104300104200104100103100103200103300103400103500103700
↓
101600
101500
101400
101300
101200
101100
102100
102200
102300
102400
102600
102700
104600
104500
104300
104200
104100
103100
103200
103300
103400
103500
103700