"HD","00280024","姫路市国保","20160209161443"
"DO","00280024","3","201602090000000","28427100110000793234","7","201"
"DD","00280024","3","201602090000000","1","2","","201303","","200101","","同日でのＣＴ撮影（１６列以上６４列未満マルチスライス型機器）とＣＴ撮影（６４列以上マルチスライス型機器）は併用は如何でしょうか"
"DO","00280024","3","201602090000001","28427100110001069177","7","201"
"DD","00280024","3","201602090000001","1","2","","201303","","200101","","CTとMRIの同時背反での制限を越えています"
"GO","00280024","3","201602090000001","1","28427100110001069177","","1","42709"
"DO","00280024","3","201602090000003","28427100110000301925","7","201"
"DD","00280024","3","201602090000003","1","2","","201303","","200101","","CTとMRIの同時背反での制限を越えています"
"GO","00280024","3","201602090000003","1","28427100110000301925","","1","42709"
"DO","00280024","3","201602090000004","28427100110000311691","7","201"
"DD","00280024","3","201602090000004","1","2","","201303","","200101","","同日でのCTとMRIの併施行如何でしょうか"
"GO","00280024","3","201602090000004","1","28427100110000311691","","1","42709"
"DO","00280024","3","201602090000005","28427100110001062418","7","201"
"DD","00280024","3","201602090000005","1","2","","201303","","200101","","同日でのCTとMRIの併施行如何でしょうか"
"GO","00280024","3","201602090000005","1","28427100110001062418","","1","42709"
"DO","00280024","3","201602090000006","28427100110000573079","7","201"
"DD","00280024","3","201602090000006","1","2","","201303","","200101","","透視診断は蠕動運動しない臓器には算定できません。"
"DO","00280024","3","201602090000007","28427100110000385955","7","201"
"DD","00280024","3","201602090000007","1","2","","201303","","200101","","透視診断は蠕動運動しない臓器(消化管)には算定できません。"
"GO","00280024","3","201602090000007","1","28427100110000385955","","1","42709"
"DO","00280024","3","201602090000008","28427100110000885729","7","201"
"DD","00280024","3","201602090000008","1","2","","201303","","200101","","透視診断は蠕動運動しない臓器には算定できません。"
"GO","00280024","3","201602090000008","1","28427100110000885729","","1","42709"
"DO","00280024","3","201602090000009","28427100110000796350","7","201"
"DD","00280024","3","201602090000009","1","2","","201303","","200101","","病名でグリコアルブミンを2回の算定は過剰ではないでしょうか"
"GO","00280024","3","201602090000009","1","28427100110000796350","","1","42709"
"DO","00280024","3","201602090000010","28427100110000791245","7","201"
"DD","00280024","3","201602090000010","1","2","","201303","","200101","","ＣＰＲと抗ＧＡＤ抗体の両方の算定は如何でしょうか"
"GO","00280024","3","201602090000010","1","28427100110000791245","","1","42709"
"DO","00280024","3","201602090000011","28427100110000799077","7","201"
"DD","00280024","3","201602090000011","1","2","","201303","","200101","","ＣＰＲと抗ＧＡＤ抗体の両方の算定は如何でしょうか"
"GO","00280024","3","201602090000011","1","28427100110000799077","","1","42709"
"DO","00280024","3","201602090000012","28427100110000799508","7","201"
"DD","00280024","3","201602090000012","1","2","","201303","","200101","","ＣＰＲと抗ＧＡＤ抗体の両方の算定は如何でしょうか"
"GO","00280024","3","201602090000012","1","28427100110000799508","","1","42709"
"DO","00280024","3","201602090000013","28427100110000790904","7","201"
"DD","00280024","3","201602090000013","1","2","","201303","","200101","","ＣＰＲと抗ＧＡＤ抗体の両方の算定は如何でしょうか"
"GO","00280024","3","201602090000013","1","28427100110000790904","","1","42709"
"DO","00280024","3","201602090000014","33427100110000153838","7","201"
"DD","00280024","3","201602090000014","1","2","","201303","","200101","","ＣＰＲと抗ＧＡＤ抗体の両方の算定は如何でしょうか"
"GO","00280024","3","201602090000014","1","33427100110000153838","","1","42709"
"DO","00280024","3","201602090000015","28427100110001036805","7","201"
"DD","00280024","3","201602090000015","1","2","","201303","","200101","","ＣＰＲと抗ＧＡＤ抗体の両方の算定は如何でしょうか"
"GO","00280024","3","201602090000015","1","28427100110001036805","","1","42709"
"DO","00280024","3","201602090000016","28427100110001062989","7","201"
"DD","00280024","3","201602090000016","1","2","","201303","","200101","","ＣＰＲと抗ＧＡＤ抗体の両方の算定は如何でしょうか"
"GO","00280024","3","201602090000016","1","28427100110001062989","","1","42709"
"DO","00280024","3","201602090000017","28427100110001037147","7","201"
"DD","00280024","3","201602090000017","1","2","","201303","","200101","","国宮本 - CTとMRIの同時背反での制限を越えています"
"GO","00280024","3","201602090000017","1","28427100110001037147","","1","42709"
"FT","17"
