"HD","00280024","姫路市国保","20160209141619"
"DO","00280024","4","201602090000000","28427060410000036309","8","201"
"DD","00280024","4","201602090000000","1","2","","201306","","200401","","病名からみてエリキュース錠５ｍｇ 2錠の算定は如何でしょうか（添付）"
"GO","00280024","4","201602090000000","1","28427060410000036309","","4","42705"
"GO","00280024","4","201602090000000","0","28427060110000073029","","1","42705"
"FT","1"
