2,1,0,MN,132290207222700,埼玉県,,,,1142902200005404
1,2,0,IR,2,11,1,9900051,,○○中央病院,42902,00,00-0000-0000
1,3,0,RE,338,1117,42901,○○　○○,1,3211128,80,,,,,,027747617F   0000895,,,,,0,,11429020210000005404,,,10,,,,
1,4,0,HO,  139999,４４−４４,４４４４,2,9165,,2,1330,,,18330,,,,720
1,5,0,BU,060160X099XXXX,4290130,,,
1,6,0,SB,8836802,2056,,K409,01,,
1,7,0,SB,8836802,2056,,K409,11,,
1,8,0,SB,8836802,2056,,K409,21,,
1,9,0,SB,8841698,,,E119,41,,
1,10,0,SB,4341026,,,I693,42,,
1,11,0,SB,8836591,,,N40,43,,
1,12,0,KK,,,3,4281003,,70,,0,,,,,
1,13,0,SK,,,,,KKK0,
1,14,0,GA,42901,2,0000000000000000000000000000000,,1.3273,
1,15,0,HH,42901,2,1,1,1,3285,2,6570
1,16,0,GT,42901,2,1,1,6570,8720,,8720,93,,
1,17,0,SI,13,1,120001610,,325,1,,,,,,,,,,,,,,,,,,,,,,,,,,,,,,,,,,,,,1
1,18,0,SI,90,1,190105570,,,1,,,,,,,,,,,,,,,,,,,,,,,,,,,,,,,,,,,,1,
1,19,0,SI,,1,190147510,,95,1,,,,,,,,,,,,,,,,,,,,,,,,,,,,,,,,,,,,1,
1,20,0,SI,90,1,190105570,,25,1,,,,,,,,,,,,,,,,,,,,,,,,,,,,,,,,,,,,,1
1,21,0,SI,97,1,197000110,2,1280,1,,,,,,,,,,,,,,,,,,,,,,,,,,,,,,,,,,,,,1
1,22,0,SI,97,1,197000570,,50,1,,,,,,,,,,,,,,,,,,,,,,,,,,,,,,,,,,,,,1
1,23,0,SI,97,1,197000810,2,720,1,,,,,,,,,,,,,,,,,,,,,,,,,,,,,,,,,,,,,1
1,24,0,CD,4290131,13,1,1,120001610,,,,1,
1,25,0,CD,4290130,60,1,1,160102510,,,,1,
1,26,0,CD,4290130,60,2,1,160155510,,,,1,
1,27,0,CD,4290131,60,3,1,160102510,,,,1,
1,28,0,CD,4290131,60,4,1,160008010,,,,1,
1,29,0,CD,4290131,60,4,2,160191510,,,,1,
1,30,0,CD,4290131,60,5,1,160161510,,,,1,
1,31,0,CD,4290131,60,5,2,160017410,,,,1,
1,32,0,CD,4290131,60,5,3,160018910,,,,1,
1,33,0,CD,4290131,60,5,4,160017010,,,,1,
1,34,0,CD,4290131,60,5,5,160022510,,,,1,
1,35,0,CD,4290131,60,5,6,160022610,,,,1,
1,36,0,CD,4290131,60,5,7,160020010,,,,1,
1,37,0,CD,4290131,60,5,8,160020410,,,,1,
1,38,0,CD,4290131,60,5,9,160019010,,,,1,
1,39,0,CD,4290131,60,5,10,160019210,,,,1,
1,40,0,CD,4290131,60,5,11,160021110,,,,1,
1,41,0,CD,4290131,60,5,12,160021410,,,,1,
1,42,0,CD,4290131,60,6,1,160054710,,,,1,
1,43,0,CD,4290131,70,1,1,170000410,,1,,1,
1,44,0,CD,4290131,70,1,2,170027910,,1,,1,
1,45,0,CD,4290131,70,1,3,170000210,,,,1,
1,46,0,CD,4290131,70,1,4,777770000,1,,006,1,電子画像管理につきフィルム算定なし
1,47,0,CD,4290131,70,2,1,170000410,,1,,1,
1,48,0,CD,4290131,70,2,2,170027910,,1,,1,
1,49,0,CD,4290131,70,2,3,170000210,,,,1,
1,50,0,CD,4290131,70,2,4,777770000,1,,006,1,電子画像管理につきフィルム算定なし
2,51,1,EX,,,,,,,,,,,,1:42902:  10000000  
2,52,0,RC,9981517df7b5d7e1e2fb98e1eefd28
2,1,0,MN,132290207187600,埼玉県所沢市並木３−２,,,,1142902200001465
1,2,0,IR,2,11,1,9900069,,防衛医科大学校病院,42902,00,04-2995-1511
1,3,0,RE,217,1117,42901,小俣　澄子,2,3201105,80,,,,,,00007287470-40 -2-08,,,,,0,,11429020210000001465,,2017022000006236527020170140 2,20,,,,
1,4,0,HO,  138438,４３−０４,６４２９,9,27896,,20,12800,,,44400,,,,7200
1,5,0,BU,110060XX99X0XX,4290110,4290118,2,
1,6,0,SB,1891003,2056,,C65,01,,
1,7,0,SB,1891003,2056,,C65,11,,
1,8,0,SB,1891003,2056,,C65,21,,
1,9,0,KK,,,2,4281213,1,71,,,,,,,
1,10,0,GA,42901,2,0000000000000000000000000000000,,1.2971,
1,11,0,HH,42901,2,1,1,1,2736,3,8208
1,12,0,HH,42901,2,1,1,2,2129,4,8516
1,13,0,HH,42901,2,1,1,3,1809,2,3618
1,14,0,GT,42901,2,1,1,20342,26386,,26386,93,,
1,15,0,SI,13,1,180016110,,250,1,,,,,,,,,,,,,,,,,,,,,,,,1,,,,,,,,,,,,,
1,16,0,CO,,1,810000001,１８日
1,17,0,SI,60,1,160101210,,50,1,,,,,,,,,,,,,,,,1,,,,,,,,,,,,,,,,,,,,,
1,18,0,SI,70,1,170025510,,70,1,,,,,,,,,,,,,,,,1,,,,,,,,,,,,,,,,,,,,,
1,19,0,SI,90,1,112019090,,420,1,,,,,,,,,,,,,,,,1,,,,,,,,,,,,,,,,,,,,,
1,20,0,CO,,1,810000001,１０日
1,21,0,SI,90,1,190188870,,55,9,,,,,,,,,,,,,,,,1,1,1,1,1,1,1,1,1,,,,,,,,,,,,,
1,22,0,CO,,1,810000001,１０日〜１８日
1,23,0,SI,90,1,190105570,,25,9,,,,,,,,,,,,,,,,1,1,1,1,1,1,1,1,1,,,,,,,,,,,,,
1,24,0,CO,,1,810000001,１０日〜１８日
1,25,0,SI,97,1,197000110,1,640,2,,,,,,,,,,,,,,,,,1,,,,,,,1,,,,,,,,,,,,,
1,26,0,SI,97,1,197000110,3,1920,6,,,,,,,,,,,,,,,,,,1,1,1,1,1,1,,,,,,,,,,,,,,
1,27,0,SI,97,1,197000810,1,360,2,,,,,,,,,,,,,,,,,1,,,,,,,1,,,,,,,,,,,,,
1,28,0,SI,97,1,197000810,3,1080,6,,,,,,,,,,,,,,,,,,1,1,1,1,1,1,,,,,,,,,,,,,,
1,29,0,CO,99,1,810000001,平成２８年　７月１５日　入院
1,30,0,CO,,1,810000001,平成２８年　８月１７日　退院
1,31,0,CO,,1,810000001,平成２８年　９月　２日　再入院
1,32,0,CO,,1,810000001,平成２８年　９月２３日　退院
1,33,0,CO,,1,810000001,平成２８年１０月２１日　再入院
1,34,0,CO,,1,810000001,平成２８年１０月２７日　退院
1,35,0,CO,,1,810000001,平成２８年１１月１８日　再入院
1,36,0,CO,,1,810000001,平成２８年１２月１３日　退院
1,37,0,CO,,1,810000001,当月内　平成２９年　１月１０日　再入院
1,38,0,CO,,1,810000001,当月内　平成２９年　１月１８日　退院
1,39,0,CD,4290118,13,1,1,180016110,,,,1,
1,40,0,CD,4290111,31,2,1,620007460,1,,,1,
1,41,0,CD,4290111,31,3,1,620007536,1,,,1,
1,42,0,CD,4290110,33,4,1,620007338,1,,,1,
1,43,0,CD,4290110,33,4,2,643310347,1,,,1,
1,44,0,CD,4290110,33,4,3,643230317,8,,,1,
1,45,0,CD,4290110,33,4,4,620007454,1,,,1,
1,46,0,CD,4290110,33,4,5,620007342,1,,,1,
1,47,0,CD,4290110,33,4,6,640421009,1,,,1,
1,48,0,CD,4290110,33,4,7,622355401,1,,,1,
1,49,0,CD,4290110,33,4,8,643230212,1,,,1,
1,50,0,CD,4290111,33,5,1,640421009,2,,,1,
1,51,0,CD,4290111,33,5,2,643230317,8,,,1,
1,52,0,CD,4290112,33,6,1,640421009,1,,,1,
1,53,0,CD,4290112,33,6,2,643230317,2,,,1,
1,54,0,CD,4290113,33,7,1,640421009,3,,,1,
1,55,0,CD,4290113,33,7,2,643230317,3,,,1,
1,56,0,CD,4290114,33,8,1,643310347,1,,,1,
1,57,0,CD,4290114,33,8,2,643230317,1,,,1,
1,58,0,CD,4290115,33,9,1,643310347,2,,,1,
1,59,0,CD,4290115,33,9,2,643230317,2,,,1,
1,60,0,CD,4290116,33,10,1,643310347,2,,,1,
1,61,0,CD,4290116,33,10,2,643230317,2,,,1,
1,62,0,CD,4290117,33,11,1,643310347,1,,,1,
1,63,0,CD,4290117,33,11,2,643230317,1,,,1,
1,64,0,CD,4290117,33,11,3,620007386,1,,,1,
1,65,0,CD,4290117,33,11,4,622033301,1,,,1,
1,66,0,CD,4290117,33,11,5,643310182,1,,,1,
1,67,0,CD,4290118,33,12,1,620801302,1,,,1,
1,68,0,CD,4290118,33,12,2,643310347,2,,,1,
1,69,0,CD,4290118,33,12,3,643230317,2,,,1,
1,70,0,CD,4290118,33,12,4,622267401,1,,,1,
1,71,0,CD,4290118,33,12,5,620007386,1,,,1,
1,72,0,CD,4290110,40,13,1,140013810,,,,1,
1,73,0,CD,4290110,40,13,2,710010927,1,,007,1,
1,74,0,CD,4290110,40,14,1,736740000,20.25,,,1,
1,75,0,CD,4290110,60,15,1,160008010,,,,1,
1,76,0,CD,4290110,60,16,1,160054610,,,,1,
1,77,0,CD,4290110,60,17,1,160027710,,,,1,
1,78,0,CD,4290110,60,18,1,160019210,,,,1,
1,79,0,CD,4290110,60,18,2,160017410,,,,1,
1,80,0,CD,4290110,60,18,3,160022510,,,,1,
1,81,0,CD,4290110,60,18,4,160022610,,,,1,
1,82,0,CD,4290110,60,18,5,160020410,,,,1,
1,83,0,CD,4290110,60,18,6,160019010,,,,1,
1,84,0,CD,4290110,60,18,7,160021410,,,,1,
1,85,0,CD,4290110,60,18,8,160021510,,,,1,
1,86,0,CD,4290110,60,18,9,160019410,,,,1,
1,87,0,CD,4290110,60,18,10,160017010,,,,1,
1,88,0,CD,4290110,60,18,11,160020010,,,,1,
1,89,0,CD,4290110,60,18,12,160018910,,,,1,
1,90,0,CD,4290110,60,18,13,160021110,,,,1,
1,91,0,CD,4290110,60,18,14,160021810,,,,1,
1,92,0,CD,4290110,60,19,1,160101210,,,,1,
1,93,0,CD,4290110,60,20,1,160000210,,,,1,
1,94,0,CD,4290110,60,21,1,160061810,,,,1,
1,95,0,CD,4290110,60,22,1,160061910,,,,1,
1,96,0,CD,4290110,60,23,1,160062110,,,,1,
1,97,0,CD,4290111,60,24,1,160008110,,,,1,
1,98,0,CD,4290111,60,25,1,160019210,,,,1,
1,99,0,CD,4290111,60,25,2,160017410,,,,1,
1,100,0,CD,4290111,60,25,3,160022510,,,,1,
1,101,0,CD,4290111,60,25,4,160022610,,,,1,
1,102,0,CD,4290111,60,25,5,160019510,,,,1,
1,103,0,CD,4290111,60,25,6,160019310,,,,1,
1,104,0,CD,4290111,60,25,7,160020410,,,,1,
1,105,0,CD,4290111,60,25,8,160019010,,,,1,
1,106,0,CD,4290111,60,25,9,160021410,,,,1,
1,107,0,CD,4290111,60,25,10,160021510,,,,1,
1,108,0,CD,4290111,60,25,11,160019410,,,,1,
1,109,0,CD,4290111,60,25,12,160017010,,,,1,
1,110,0,CD,4290111,60,25,13,160020010,,,,1,
1,111,0,CD,4290111,60,25,14,160018910,,,,1,
1,112,0,CD,4290111,60,25,15,160021110,,,,1,
1,113,0,CD,4290111,60,25,16,160021810,,,,1,
1,114,0,CD,4290111,60,26,1,160008010,,,,1,
1,115,0,CD,4290111,60,27,1,160054610,,,,1,
1,116,0,CD,4290111,60,28,1,160003910,,,,1,
1,117,0,CD,4290111,60,29,1,160061710,,,,1,
1,118,0,CD,4290113,60,30,1,160008010,,,,1,
1,119,0,CD,4290113,60,31,1,160054610,,,,1,
1,120,0,CD,4290113,60,32,1,160019210,,,,1,
1,121,0,CD,4290113,60,32,2,160017410,,,,1,
1,122,0,CD,4290113,60,32,3,160022510,,,,1,
1,123,0,CD,4290113,60,32,4,160022610,,,,1,
1,124,0,CD,4290113,60,32,5,160020410,,,,1,
1,125,0,CD,4290113,60,32,6,160019010,,,,1,
1,126,0,CD,4290113,60,32,7,160021410,,,,1,
1,127,0,CD,4290113,60,32,8,160021510,,,,1,
1,128,0,CD,4290113,60,32,9,160019410,,,,1,
1,129,0,CD,4290113,60,32,10,160017010,,,,1,
1,130,0,CD,4290113,60,32,11,160020010,,,,1,
1,131,0,CD,4290113,60,32,12,160018910,,,,1,
1,132,0,CD,4290113,60,32,13,160021110,,,,1,
1,133,0,CD,4290113,60,32,14,160021810,,,,1,
1,134,0,CD,4290110,70,33,1,170011810,,,,1,
1,135,0,CD,4290110,70,34,1,170025510,,,,1,
1,136,0,CD,4290110,70,35,1,170016010,,,,1,
2,137,1,EX,,,,,,,,,,,,1:42902:  20000000  
2,138,0,RC,deeb3ffd124e6236023f0593d85387
