2,1,0,MN,929063260,岡山県岡山市中区倉田５６７−１,33142806929063260,,,,,,,,,,,,,,,,,,,,,,,,,,,,,,,,,,,,,,,,,,,,
1,2,0,IR,1,33,1,0111319,,一般財団法人操風会岡山旭東病院,42806,00,086-276-3231,,,,,,,,,,,,,,,,,,,,,,,,,,,,,,,,,,,,,,
1,3,0,RE,15,1211,42805,■■　■■,2,3101216,,,,,,,0000084149,,,,,1,2,,,,11,,,,,,,,,,,,,,,,,,,,,,,,
1,4,0,KO,12334066,0322420,,31,90725,11550,,,,93,61070,0,,,,,,,,,,,,,,,,,,,,,,,,,,,,,,,,,,,
1,5,0,CO,01,5,810000001,０５月０２日一般病床から地域包括ケア,,,,,,,,,,,,,,,,,,,,,,,,,,,,,,,,,,,,,,,,,,,
1,6,0,CO,,5,810000001,病棟へ移動しました。,,,,,,,,,,,,,,,,,,,,,,,,,,,,,,,,,,,,,,,,,,,
1,7,0,RE,15,1211,42805,■■　■■,2,3101216,,,,,,,0000084149,,,,,2,,,,,11,,,,,,,,,,,,,,,,,,,,,,,,
1,8,0,KO,12334066,0322420,,1,2795,,,,,3,1970,,,,,,,,,,,,,,,,,,,,,,,,,,,,,,,,,,,,
1,9,0,BU,160820XX01XXXX,4280415,4280501,9,,,,,,,,,,,,,,,,,,,,,,,,,,,,,,,,,,,,,,,,,,,
1,10,0,SB,8832906,2049,,S8210,01,,,,,,,,,,,,,,,,,,,,,,,,,,,,,,,,,,,,,,,,,,
1,11,0,SB,8832906,2049,,S8210,11,,,,,,,,,,,,,,,,,,,,,,,,,,,,,,,,,,,,,,,,,,
1,12,0,SB,8832906,2049,,S8210,21,,,,,,,,,,,,,,,,,,,,,,,,,,,,,,,,,,,,,,,,,,
1,13,0,SB,8842106,,,M0690,41,,,,,,,,,,,,,,,,,,,,,,,,,,,,,,,,,,,,,,,,,,
1,14,0,SB,4341049,,,I638,42,,,,,,,,,,,,,,,,,,,,,,,,,,,,,,,,,,,,,,,,,,
1,15,0,KK,,1,3,4280325,,80,,,,,,,,,,,,,,,,,,,,,,,,,,,,,,,,,,,,,,,,,
1,16,0,SK,,K0731,4280425,,,関節内骨折観血的手術（膝）,,,,,,,,,,,,,,,,,,,,,,,,,,,,,,,,,,,,,,,,,
1,17,0,SK,,K0442,4280415,,,骨折非観血的整復術（下腿）,,,,,,,,,,,,,,,,,,,,,,,,,,,,,,,,,,,,,,,,,
1,18,0,GA,42804,1,000000000000000000000000000000,160820XX01XXXX,1.3722,,,,,,,,,,,,,,,,,,,,,,,,,,,,,,,,,,,,,,,,,,
1,19,0,HH,42804,1,,,1,2219,14,31066,,,,,,,,,,,,,,,,,,,,,,,,,,,,,,,,,,,,,,,
1,20,0,HH,42804,1,,,2,1640,2,3280,,,,,,,,,,,,,,,,,,,,,,,,,,,,,,,,,,,,,,,
1,21,0,GT,42804,1,,,34346,47130,,,,,,,,,,,,,,,,,,,,,,,,,,,,,,,,,,,,,,,,,
1,22,0,GA,42805,2,0000000000000000000000000000000,160820XX01XXXX,1.3722,,,,,,,,,,,,,,,,,,,,,,,,,,,,,,,,,,,,,,,,,,
1,23,0,HH,42805,2,1,5,2,1640,1,1640,,,,,,,,,,,,,,,,,,,,,,,,,,,,,,,,,,,,,,,
1,24,0,GT,42805,2,1,5,1640,2250,,2250,93,,,,,,,,,,,,,,,,,,,,,,,,,,,,,,,,,,,,,,
1,25,0,SI,80,5,180032710,2,,1,,,,,,,1,,,,,,,,,,,,,,,,,,,,,,,,,,,,,,,,,,
1,26,0,SI,,5,180030770,2,,1,,,,,,,1,,,,,,,,,,,,,,,,,,,,,,,,,,,,,,,,,,
1,27,0,SI,,5,180033870,2,520,1,,,,,,,1,,,,,,,,,,,,,,,,,,,,,,,,,,,,,,,,,,
1,28,0,CO,,5,810000001,左脛骨膝関節内骨折,,,,,,,,,,,,,,,,,,,,,,,,,,,,,,,,,,,,,,,,,,,
1,29,0,CO,,5,810000001,（手術：平成２８年０４月２５日）,,,,,,,,,,,,,,,,,,,,,,,,,,,,,,,,,,,,,,,,,,,
1,30,0,CO,,5,810000001,（５月１日）,,,,,,,,,,,,,,,,,,,,,,,,,,,,,,,,,,,,,,,,,,,
1,31,0,CO,80,5,840000096,０１,,,,,,,,,,,,,,,,,,,,,,,,,,,,,,,,,,,,,,,,,,,
1,32,0,CO,80,5,810000001,総合承認施設であり、日曜・祝日共に　理学療法・作業療法を行っています。,,,,,,,,,,,,,,,,,,,,,,,,,,,,,,,,,,,,,,,,,,,
1,33,0,SI,90,5,190105570,,25,1,,,,,,,1,,,,,,,,,,,,,,,,,,,,,,,,,,,,,,,,,,
1,34,0,SI,97,5,197000110,3,,1,,,,,,,1,,,,,,,,,,,,,,,,,,,,,,,,,,,,,,,,,,
1,35,0,SI,,5,197000570,,1970,1,,,,,,,1,,,,,,,,,,,,,,,,,,,,,,,,,,,,,,,,,,
1,36,0,CD,4280501,24,1,1,120001110,,,,1,,,,,,,,,,,,,,,,,,,,,,,,,,,,,,,,,,,,,,
1,37,0,CD,4280501,80,1,1,180032710,,2,,1,,,,,,,,,,,,,,,,,,,,,,,,,,,,,,,,,,,,,,
1,38,0,CD,4280501,80,1,2,180030770,,2,,1,,,,,,,,,,,,,,,,,,,,,,,,,,,,,,,,,,,,,,
1,39,0,CD,4280501,80,1,3,180033870,,2,,1,,,,,,,,,,,,,,,,,,,,,,,,,,,,,,,,,,,,,,
1,40,0,RE,15,1211,42805,■■　■■,2,3101216,,4280415,,,,,0000084149,,,,,3,,,,,11,,,,,,,,,,,,,,,,,,,,,,,,
1,41,0,KO,12334066,0322420,,30,87930,,,,,90,59100,,,,,,,,,,,,,,,,,,,,,,,,,,,,,,,,,,,,
1,42,0,SY,8846439,4280313,1,,,,,,,,,,,,,,,,,,,,,,,,,,,,,,,,,,,,,,,,,,,,
1,43,0,SY,8832906,4280415,1,2049,,01,,,,,,,,,,,,,,,,,,,,,,,,,,,,,,,,,,,,,,,,,
1,44,0,SY,8842106,4280415,1,,,,,,,,,,,,,,,,,,,,,,,,,,,,,,,,,,,,,,,,,,,,
1,45,0,SI,90,5,190191310,,3,30,,,,,,,,1,1,1,1,1,1,1,1,1,1,1,1,1,1,1,1,1,1,1,1,1,1,1,1,1,1,1,1,1,1,,,,
1,46,0,SI,92,5,190175310,,,14,,,,,,,,1,1,1,1,1,1,1,1,1,1,1,1,1,1,,,,,,,,,,,,,,,,,,,,
1,47,0,SI,,5,190176970,,,14,,,,,,,,1,1,1,1,1,1,1,1,1,1,1,1,1,1,,,,,,,,,,,,,,,,,,,,
1,48,0,SI,,5,190177070,,,14,,,,,,,,1,1,1,1,1,1,1,1,1,1,1,1,1,1,,,,,,,,,,,,,,,,,,,,
1,49,0,SI,,5,190177170,,3008,14,,,,,,,,1,1,1,1,1,1,1,1,1,1,1,1,1,1,,,,,,,,,,,,,,,,,,,,
1,50,0,SI,92,5,190175310,,,16,,,,,,,,,,,,,,,,,,,,,,1,1,1,1,1,1,1,1,1,1,1,1,1,1,1,1,,,,
1,51,0,SI,,5,190176970,,,16,,,,,,,,,,,,,,,,,,,,,,1,1,1,1,1,1,1,1,1,1,1,1,1,1,1,1,,,,
1,52,0,SI,,5,190177070,,2858,16,,,,,,,,,,,,,,,,,,,,,,1,1,1,1,1,1,1,1,1,1,1,1,1,1,1,1,,,,
1,53,0,SI,97,5,197000110,3,,30,,,,,,,,1,1,1,1,1,1,1,1,1,1,1,1,1,1,1,1,1,1,1,1,1,1,1,1,1,1,1,1,1,1,,,,
1,54,0,SI,,5,197000570,,1970,30,,,,,,,,1,1,1,1,1,1,1,1,1,1,1,1,1,1,1,1,1,1,1,1,1,1,1,1,1,1,1,1,1,1,,,,
2,55,1,EX,,,,,,,,,,,,1:42806:,,,,,,,,,,,,,,,,,,,,,,,,,,,,,,,,,,,
2,56,1,EX,,,,,,,,,,,,###############################################################################################################################################################################################################################################################,,,,,,,,,,,,,,,,,,,,,,,,,,,,,,,,,,,
2,57,0,RC,Ver00001b363c710eec95d56cce98eae08c11ffa,,,,,,,,,,,,,,,,,,,,,,,,,,,,,,,,,,,,,,,,,,,,,,
