﻿111013770,機能強化加算（初診）,包含,FALSE,同時,111011810,初診料（同一日複数科受診時の２科目）
112007410,再診料,包含,FALSE,日,114030310,在宅患者訪問診療料（１）１（同一建物居住者）
112011010,外来管理加算,包含,FALSE,同時,112007950,電話等再診料
112015770,明細書発行体制等加算,包含,FALSE,同時,112015810,再診料（同一日複数科受診時の２科目）
112016070,時間外対応加算１,包含,FALSE,同時,112015810,再診料（同一日複数科受診時の２科目）
112021770,地域包括診療加算１,包含,FALSE,同時,112015810,再診料（同一日複数科受診時の２科目）
113001910,特定疾患療養管理料（１００床未満）,包含,FALSE,同時,112007950,電話等再診料
113013710,院内トリアージ実施料,包含,FALSE,同時,112007950,電話等再診料
113701310,手帳記載加算（薬剤情報提供料）,包含,FALSE,同時,112007950,電話等再診料
114000110,往診,包含,FALSE,同時,114003010,救急搬送診療料
120002370,薬剤情報提供料,包含,FALSE,同時,112007950,電話等再診料
120002370,薬剤情報提供料,包含,FALSE,同時,112008850,同日電話等再診料
160081130,精密眼底（両）,包含,FALSE,月,160208110,コンタクトレンズ検査料１
160081130,精密眼底（両）,包含,FALSE,月,160208210,コンタクトレンズ検査料２
160081130,精密眼底（両）,包含,FALSE,月,160208310,コンタクトレンズ検査料３
160081130,精密眼底（両）,包含,FALSE,月,160208410,コンタクトレンズ検査料４
160082910,精密眼圧,包含,FALSE,月,160208110,コンタクトレンズ検査料１
160082910,精密眼圧,包含,FALSE,月,160208210,コンタクトレンズ検査料２
160082910,精密眼圧,包含,FALSE,月,160208310,コンタクトレンズ検査料３
160082910,精密眼圧,包含,FALSE,月,160208410,コンタクトレンズ検査料４
160083150,角膜曲率,包含,FALSE,月,160208110,コンタクトレンズ検査料１
160083150,角膜曲率,包含,FALSE,月,160171210,角膜形状解析
160083150,角膜曲率,包含,FALSE,月,160208210,コンタクトレンズ検査料２
160083150,角膜曲率,包含,FALSE,月,160208310,コンタクトレンズ検査料３
160083150,角膜曲率,包含,FALSE,月,160208410,コンタクトレンズ検査料４
160083810,精密眼筋及び輻輳,包含,FALSE,月,160208110,コンタクトレンズ検査料１
160083810,精密眼筋及び輻輳,包含,FALSE,月,160208210,コンタクトレンズ検査料２
160083810,精密眼筋及び輻輳,包含,FALSE,月,160208310,コンタクトレンズ検査料３
160083810,精密眼筋及び輻輳,包含,FALSE,月,160208410,コンタクトレンズ検査料４
160084510,スリットＭ（前眼部）,包含,FALSE,月,160208110,コンタクトレンズ検査料１
160179110,矯正視力（１以外）,包含,FALSE,月,160208110,コンタクトレンズ検査料１
160179110,矯正視力（１以外）,包含,FALSE,月,160208410,コンタクトレンズ検査料４
160179110,矯正視力（１以外）,包含,FALSE,月,160208210,コンタクトレンズ検査料２
160179110,矯正視力（１以外）,包含,FALSE,月,160208310,コンタクトレンズ検査料３
160208010,屈折（１以外）,包含,FALSE,月,160208410,コンタクトレンズ検査料４
160208010,屈折（１以外）,包含,FALSE,月,160208110,コンタクトレンズ検査料１
160208010,屈折（１以外）,包含,FALSE,月,160208210,コンタクトレンズ検査料２
160208010,屈折（１以外）,包含,FALSE,月,160208310,コンタクトレンズ検査料３
170000210,電子画像管理加算（単純撮影）,包含,FALSE,同時,170001250,他医撮影の写真診断（単純撮影・イ）
170000210,電子画像管理加算（単純撮影）,包含,FALSE,同時,170001350,他医撮影の写真診断（単純撮影・ロ）
170000310,透視診断,包含,FALSE,同時,160095610,コルポスコピー
170000410,単純撮影（イ）の写真診断,包含,FALSE,同時,160095610,コルポスコピー
170000410,単純撮影（イ）の写真診断,包含,FALSE,同時,160183710,肛門鏡
170000510,単純撮影（ロ）の写真診断,包含,FALSE,同時,160095610,コルポスコピー
170000610,特殊撮影の写真診断,包含,FALSE,同時,160095610,コルポスコピー
170000730,特殊撮影の写真診断（他方と同時併施）,包含,FALSE,同時,160095610,コルポスコピー
170000810,造影剤使用撮影の写真診断,包含,FALSE,同時,160095610,コルポスコピー
170000910,単純間接撮影（イ）の写真診断,包含,FALSE,同時,160095610,コルポスコピー
170001010,単純間接撮影（ロ）の写真診断,包含,FALSE,同時,160095610,コルポスコピー
170001110,造影剤使用間接撮影の写真診断,包含,FALSE,同時,160095610,コルポスコピー
170001250,他医撮影の写真診断（単純撮影・イ）,包含,FALSE,同時,160095610,コルポスコピー
170001350,他医撮影の写真診断（単純撮影・ロ）,包含,FALSE,同時,160095610,コルポスコピー
170001450,他医撮影の写真診断（特殊撮影）,包含,FALSE,同時,160095610,コルポスコピー
170001550,他医撮影の写真診断（造影剤使用撮影）,包含,FALSE,同時,160095610,コルポスコピー
170001650,他医間接撮影の写真診断（単純撮影・イ）,包含,FALSE,同時,160095610,コルポスコピー
170001750,他医間接撮影の写真診断（単純撮影・ロ）,包含,FALSE,同時,160095610,コルポスコピー
170001850,他医間接撮影の写真診断（造影剤使用撮影）,包含,FALSE,同時,160095610,コルポスコピー
170001910,単純撮影（アナログ撮影）,包含,FALSE,同時,160095610,コルポスコピー
170002010,特殊撮影（アナログ撮影）,包含,FALSE,同時,160095610,コルポスコピー
170002110,造影剤使用撮影（アナログ撮影）,包含,FALSE,同時,160095610,コルポスコピー
170002310,心臓及び冠動脈造影（右心カテーテル）,包含,FALSE,同時,160095610,コルポスコピー
170002410,単純間接撮影（アナログ撮影）,包含,FALSE,同時,160095610,コルポスコピー
170002510,造影剤使用間接撮影（アナログ撮影）,包含,FALSE,同時,160095610,コルポスコピー
170011650,エックス線フィルムサブトラクション（アナログ撮影）,包含,FALSE,同時,160095610,コルポスコピー
170012710,胆管・膵管造影（胃・十二指腸ファイバースコピー）（画像診断）,包含,FALSE,同時,160095610,コルポスコピー
170020710,心臓及び冠動脈造影（左心カテーテル）,包含,FALSE,同時,160095610,コルポスコピー
170020950,高速心大血管連続撮影装置による撮影（撮影）（アナログ撮影）,包含,FALSE,同時,160095610,コルポスコピー
170021150,椎間板造影（撮影）（アナログ撮影）,包含,FALSE,同時,160095610,コルポスコピー
170022730,単純撮影（イ）の写真診断（他方と同時併施）,包含,FALSE,同時,160095610,コルポスコピー
170022830,単純撮影（ロ）の写真診断（他方と同時併施）,包含,FALSE,同時,160095610,コルポスコピー
170022930,造影剤使用撮影の写真診断（他方と同時併施）,包含,FALSE,同時,160095610,コルポスコピー
170026910,乳房撮影の写真診断,包含,FALSE,同時,160095610,コルポスコピー
170027010,乳房撮影（アナログ撮影）,包含,FALSE,同時,160095610,コルポスコピー
170027450,他医撮影の写真診断（乳房撮影）,包含,FALSE,同時,160095610,コルポスコピー
170027530,乳房撮影の写真診断（他方と同時併施）,包含,FALSE,同時,160095610,コルポスコピー
170027910,単純撮影（デジタル撮影）,包含,FALSE,同時,160183710,肛門鏡
170027910,単純撮影（デジタル撮影）,包含,FALSE,同時,160095610,コルポスコピー
170028010,特殊撮影（デジタル撮影）,包含,FALSE,同時,160095610,コルポスコピー
170028110,造影剤使用撮影（デジタル撮影）,包含,FALSE,同時,160187510,内視鏡下嚥下機能
170028110,造影剤使用撮影（デジタル撮影）,包含,FALSE,同時,160095610,コルポスコピー
170028210,乳房撮影（デジタル撮影）,包含,FALSE,同時,160095610,コルポスコピー
170028310,単純間接撮影（デジタル撮影）,包含,FALSE,同時,160095610,コルポスコピー
170028410,造影剤使用間接撮影（デジタル撮影）,包含,FALSE,同時,160095610,コルポスコピー
170031750,エックス線フィルムサブトラクション（デジタル撮影）,包含,FALSE,同時,160095610,コルポスコピー
170031850,椎間板造影（撮影）（デジタル撮影）,包含,FALSE,同時,160095610,コルポスコピー
170031950,高速心大血管連続撮影装置による撮影（撮影）（デジタル撮影）,包含,FALSE,同時,160095610,コルポスコピー
170032050,単純撮影（デジタルと同時撮影）（アナログ撮影）,包含,FALSE,同時,160095610,コルポスコピー
170032150,単純撮影（アナログと同時撮影）（デジタル撮影）,包含,FALSE,同時,160095610,コルポスコピー
170032250,造影剤使用撮影（デジタルと同時撮影）（アナログ撮影）,包含,FALSE,同時,160095610,コルポスコピー
170032350,造影剤使用撮影（アナログと同時撮影）（デジタル撮影）,包含,FALSE,同時,160095610,コルポスコピー
170032450,単純間接撮影（デジタルと同時撮影）（アナログ撮影）,包含,FALSE,同時,160095610,コルポスコピー
170032550,単純間接撮影（アナログと同時撮影）（デジタル撮影）,包含,FALSE,同時,160095610,コルポスコピー
170032650,造影剤使用間接撮影（デジタルと同時撮影）（アナログ撮影）,包含,FALSE,同時,160095610,コルポスコピー
170032750,造影剤使用間接撮影（アナログと同時撮影）（デジタル撮影）,包含,FALSE,同時,160095610,コルポスコピー
160084510,スリットＭ（前眼部）,包含,FALSE,月,160208210,コンタクトレンズ検査料２
160084510,スリットＭ（前眼部）,包含,FALSE,月,160208310,コンタクトレンズ検査料３
160084510,スリットＭ（前眼部）,包含,FALSE,月,160208410,コンタクトレンズ検査料４
112011010,外来管理加算,包含,FALSE,同時,112008850,同日電話等再診料
112011010,外来管理加算,包含,FALSE,同時,112015810,再診料（同一日複数科受診時の２科目）
112011010,外来管理加算,包含,FALSE,同時,112015950,電話等再診料（同一日複数科受診時の２科目）
112011010,外来管理加算,包含,FALSE,同時,112016750,電話等特定妥結率再診料
112011010,外来管理加算,包含,FALSE,同時,112016950,同日電話等特定妥結率再診料
112011010,外来管理加算,包含,FALSE,同時,112017010,特定妥結率再診料（同一日複数科受診時の２科目）
112011010,外来管理加算,包含,FALSE,同時,112017150,電話等特定妥結率再診料（同一日複数科受診時の２科目）
112011010,外来管理加算,包含,FALSE,同時,112023350,電話等再診料（３０年３月以前継続）
112011010,外来管理加算,包含,FALSE,同時,112023450,同日電話等再診料（３０年３月以前継続）
112011010,外来管理加算,包含,FALSE,同時,112023550,電話等再診料（同一日複数科受診時の２科目）（３０年３月以前継続）
112011010,外来管理加算,包含,FALSE,同時,112023650,電話等特定妥結率再診料（３０年３月以前継続）
112011010,外来管理加算,包含,FALSE,同時,112023750,同日電話等特定妥結率再診料（３０年３月以前継続）
112011010,外来管理加算,包含,FALSE,同時,112023850,電話等特定妥結率再診料（同一日複数科２科目・３０年３月以前継続）
113024810,地域包括診療料１,包含,TRUE,日,111000110,初診料
113024810,地域包括診療料１,包含,TRUE,日,111011810,初診料（同一日複数科受診時の２科目）
113024810,地域包括診療料１,包含,TRUE,日,111012510,初診料（文書による紹介がない患者）
113024810,地域包括診療料１,包含,TRUE,日,111012610,初診料（同一日複数科受診時の２科目・文書による紹介がない患者）
113024810,地域包括診療料１,包含,TRUE,日,111012710,特定妥結率初診料
113024810,地域包括診療料１,包含,TRUE,日,111012810,特定妥結率初診料（同一日複数科受診時の２科目）
113024810,地域包括診療料１,包含,TRUE,月,112023210,オンライン診療料
113024810,地域包括診療料１,包含,TRUE,同時,112007950,電話等再診料
113024810,地域包括診療料１,包含,TRUE,同時,112008850,同日電話等再診料
113024810,地域包括診療料１,包含,TRUE,同時,112015950,電話等再診料（同一日複数科受診時の２科目）
113024810,地域包括診療料１,包含,TRUE,同時,112016750,電話等特定妥結率再診料
113024810,地域包括診療料１,包含,TRUE,同時,112016950,同日電話等特定妥結率再診料
113024810,地域包括診療料１,包含,TRUE,同時,112017150,電話等特定妥結率再診料（同一日複数科受診時の２科目）
113024810,地域包括診療料１,包含,TRUE,同時,112023350,電話等再診料（３０年３月以前継続）
113024810,地域包括診療料１,包含,TRUE,同時,112023450,同日電話等再診料（３０年３月以前継続）
113024810,地域包括診療料１,包含,TRUE,同時,112023550,電話等再診料（同一日複数科受診時の２科目）（３０年３月以前継続）
113024810,地域包括診療料１,包含,TRUE,同時,112023650,電話等特定妥結率再診料（３０年３月以前継続）
113024810,地域包括診療料１,包含,TRUE,同時,112023750,同日電話等特定妥結率再診料（３０年３月以前継続）
113024810,地域包括診療料１,包含,TRUE,同時,112023850,電話等特定妥結率再診料（同一日複数科２科目・３０年３月以前継続）
112011010,外来管理加算,包含,TRUE,日,114030310,在宅患者訪問診療料（１）１（同一建物居住者）
